1 10 20
100 200 125
201 210 89
900 1000 174
2 2 2
304384 199750 443
982328 55917 525
525384 474175 470
841597 737591 525
528766 566505 452
266046 337916 407
855751 949954 507
571517 781464 509
829513 958813 525
361909 573384 470
532915 905917 525
261006 869617 525
810868 880351 525
6325 635756 509
269330 8422 443
853443 908785 445
370252 265871 441
743555 582889 509
82258 299988 443
743144 165442 509
913145 585978 525
134855 152082 375
679317 892387 525
812923 61659 509
245800 412723 449
573456 902882 525
10500 479483 449
469326 756030 509
814618 55086 509
899007 867052 445
559590 365196 470
450398 519657 470
760790 92215 509
487024 39239 449
824077 770369 468
129705 542949 470
580310 81847 470
615603 952119 525
756959 404380 509
416223 431323 418
274021 912934 525
504391 90069 449
979065 942722 458
180530 603418 470
765814 271080 509
96115 839356 525
144197 855809 525
94343 293181 443
162258 100924 383
229372 629886 509
618091 94651 470
247919 140881 443
176683 953988 525
396059 290431 441
449559 886186 525
311313 176486 443
739504 622961 509
560578 911088 525
716823 79276 509
233278 931863 525
839506 546681 525
542925 606217 452
185317 228489 386
544793 320695 470
395183 180115 443
183861 390513 443
895345 493633 525
535373 254483 470
27391 312516 443
209895 169540 373
255105 39353 443
294109 797555 509
727101 459899 509
960741 866333 507
947416 605135 525
645342 549156 509
978638 83943 525
577578 275921 470
512573 674747 509
559655 694769 509
892889 707747 525
11877 210723 383
695652 177247 509
141138 807080 509
873637 106803 525
318631 122772 443
681037 577855 509
324240 393531 441
347484 407836 436
65875 17822 340
41887 51806 314
965634 590232 525
254653 39030 443
628307 29963 509
995488 390946 525
670673 197671 509
360227 401232 436
628665 106933 509
449012 82999 449
680677 130682 509
